%YAML 1.1
%TAG !u! tag:unity3d.com,2011:
--- !u!114 &11400000
MonoBehaviour:
  m_ObjectHideFlags: 0
  m_CorrespondingSourceObject: {fileID: 0}
  m_PrefabInternal: {fileID: 0}
  m_GameObject: {fileID: 0}
  m_Enabled: 1
  m_EditorHideFlags: 0
  m_Script: {fileID: 11500000, guid: 19bf3184e8b23ee4bac7ba17ec7f0549, type: 3}
  m_Name: Uranus
  m_EditorClassIdentifier: 
  name: Uranus
  graphic: {fileID: 21300000, guid: 4b69fc21f2774b4478683a1d5677f641, type: 3}
