%YAML 1.1
%TAG !u! tag:unity3d.com,2011:
--- !u!114 &11400000
MonoBehaviour:
  m_ObjectHideFlags: 0
  m_CorrespondingSourceObject: {fileID: 0}
  m_PrefabInternal: {fileID: 0}
  m_GameObject: {fileID: 0}
  m_Enabled: 1
  m_EditorHideFlags: 0
  m_Script: {fileID: 11500000, guid: 19bf3184e8b23ee4bac7ba17ec7f0549, type: 3}
  m_Name: Venus
  m_EditorClassIdentifier: 
  name: Venus
  graphic: {fileID: 21300000, guid: e26bcffe32469064b918b33f55597f03, type: 3}
